post_title, post_name, post_excerpt, categories, tags, regular_price, type, sold_individually, download_limit, download_expiry, Download 1 name, Download 1 url, sku, published, visibility, product_url
"Securities Litigation: Answer", "securities-litigation-answer", "A answer that a defendant may use to respond to a complaint in a civil securities fraud lawsuit in federal district court. This Securities Litigation: Answer focuses on private actions asserting claims of material misstatements or omissions in violation of Section 10(b) of the Securities Exchange Act of 1934 and Securities and Exchange Commission (SEC) Rule 10b-5. It contains integrated drafting notes with important explanations and tips for drafting the answer's caption, admissions, denials, defenses tailored to securities fraud claims (including affirmative defenses), and signature block.", Litigation, "united states, litigation, general", 90, "simple, downloadable, virtual", yes, -1, -1, Download, https://app.uplaw.us/download?slug=securities-litigation-answer, e7bdb24fb794e82e01a7ee7039134224, 0, hidden, product/securities-litigation-answer
"Second Request Document Slip Sheet", "second-request-document-slip-sheet", "A Second Request Document Slip Sheet counsel can use as a slip sheet to mark where in a custodian's files each discrete hard-copy document or collection of hard-copy documents originated when collecting documents to respond to a Second Request. This Second Request Document Slip Sheet provides advice on how to use the slip sheet and set up a document return system. This Second Request Document Slip Sheet provides advice on how it should be used in conjunction with the Second Request Document Control Sheet and the Site Log Form to ensure that documents removed for copying as part of Second Request compliance are more easily returned to their original location in the custodian's files.", Antitrust and Bankruptcy, "united states, antitrust and bankruptcy, general", 14, "simple, downloadable, virtual", yes, -1, -1, Download, https://app.uplaw.us/download?slug=second-request-document-slip-sheet, 6eac74ad0f376ef558ee48ef40b9b4b7, 0, hidden, product/second-request-document-slip-sheet
"Lost Note Affidavit", "lost-note-affidavit", "A standard form of affidavit used when a promissory note has been delivered to a lender in a financing transaction and subsequently lost by that lender. This Lost Note Affidavit is consistent with, but not identical to, the form of lost note affidavit for use in connection with loan assignments published by the Loan Syndications and Trading Association (LSTA). This Lost Note Affidavit includes your customized downloable legal document, an instructional guide for using the document, a three-month UpLaw Law Library subscription, and lifetime monitoring and updates.", Finance, "united states, finance, general", 31, "simple, downloadable, virtual", yes, -1, -1, Download, https://app.uplaw.us/download?slug=lost-note-affidavit, cb4e6c6c347639820ccba0e30d199148, 0, hidden, product/lost-note-affidavit
"Patent Litigation: Expert Declaration Supporting Motion for Summary Judgment of No Invalidity", "patent-litigation-expert-declaration-supporting-motion-for-summary-judgment-of-no-invalidity", "An expert declaration in support of a patent owner's motion for summary judgment that one or more of the accused infringer's invalidity defenses do not render the asserted patent invalid. It addresses the invalidity defenses of anticipation, obviousness, written description, enablement, and indefiniteness. This Patent Litigation: Expert Declaration Supporting Motion for Summary Judgment of No Invalidity has integrated drafting notes with important explanations and drafting tips.", Intellectual Property and Technology, "united states, intellectual property and technology, general", 162, "simple, downloadable, virtual", yes, -1, -1, Download, https://app.uplaw.us/download?slug=patent-litigation-expert-declaration-supporting-motion-for-summary-judgment-of-no-invalidity, e38143eed70d334d36940a75b49e8fd1, 0, hidden, product/patent-litigation-expert-declaration-supporting-motion-for-summary-judgment-of-no-invalidity
"Stand-Alone Policy Acknowledgment", "standalone-policy-acknowledgment", "A legal acknowledgment of an employee's receipt, review, and understanding of a stand-alone employment policy. This Stand-Alone Policy Acknowledgment applies only to private workplaces and is based on federal law. State or local law may impose additional or different requirements but this document will be useful and relevant to employers in every state. This Stand-Alone Policy Acknowledgment includes your customized downloable legal document, an instructional guide for using the document, a three-month UpLaw Law Library subscription, and lifetime monitoring and updates.", Labor and Employment, "united states, labor and employment, general", 12, "simple, downloadable, virtual", yes, -1, -1, Download, https://app.uplaw.us/download?slug=standalone-policy-acknowledgment, ae9a38c87163d549700f5aa792670b02, 0, hidden, product/standalone-policy-acknowledgment
"Information Security Policy", "information-security-policy", "A legal workforce-facing Information Security Policy as required by federal and state laws, industry standards, and best practices. This Information Security Policy should be used with Practice Note, Developing Information Security Policies. This Information Security Policy includes integrated notes with important explanations and drafting tips.", Intellectual Property and Technology, "united states, intellectual property and technology, general", 193, "simple, downloadable, virtual", yes, -1, -1, Download, https://app.uplaw.us/download?slug=information-security-policy, 142b43d7f0ff6f936b9c528bb3ebbb20, 0, hidden, product/information-security-policy
"Ucc-1 Financing Statement", "ucc1-financing-statement", "This is the 05/22/02 version of the UCC-1 financing statement (UCC-1) provided for reference purposes only. Please check with the appropriate state's Uniform Commercial Code and central filing office for the appropriate version of UCC-1 to use. This UCC-1 version may not be accepted by some filing offices. For example, after July 1, 2013 some central filing offices may only accept the new 04/20/11 version of UCC-1.", Finance, "united states, finance, general", 1, "simple, downloadable, virtual", yes, -1, -1, Download, https://app.uplaw.us/download?slug=ucc1-financing-statement, a55ba5de4e01c9e78a691ba9a03fb7e3, 0, hidden, product/ucc1-financing-statement
"Patent Litigation: Interrogatories (Patent Owner to Accused Infringer)", "patent-litigation-interrogatories-patent-owner-to-accused-infringer", "Model interrogatories for patent owner's counsel to use as a starting point for drafting an initial set of interrogatories to the accused infringer in patent infringement litigation. This Patent Litigation: Interrogatories (Patent Owner to Accused Infringer) has integrated drafting notes with important explanations and tips for drafting the caption, introduction, definitions, instructions, specific interrogatories, a blank verification form for the responding party to execute, the signature block, and proof of service.", Intellectual Property and Technology, "united states, intellectual property and technology, general", 95, "simple, downloadable, virtual", yes, -1, -1, Download, https://app.uplaw.us/download?slug=patent-litigation-interrogatories-patent-owner-to-accused-infringer, b08c907ae633e53ad9d311bfbcfe3456, 0, hidden, product/patent-litigation-interrogatories-patent-owner-to-accused-infringer
"Third-Party Reference Letter for An Outstanding Professor Or Researcher Or Individual of Extraordinary Ability Or Achievement", "thirdparty-reference-letter-for-an-outstanding-professor-or-researcher-or-individual-of-extraordinary-ability-or-achievement", "A legal reference letter for an outstanding professor or researcher or individual of extraordinary ability or achievement. This letter may be used by third parties providing references for a foreign worker seeking O-1 (individual of extraordinary ability or achievement) nonimmigrant visa status or lawful permanent resident (LPR) status under the EB-11 (individual of extraordinary ability) or EB-12 (outstanding professor or researcher) immigrant visa classifications. This Third-Party Reference Letter for An Outstanding Professor Or Researcher Or Individual of Extraordinary Ability Or Achievement includes your customized downloable legal document, an instructional guide for using the document, a three-month UpLaw Law Library subscription, and lifetime monitoring and updates.", Labor and Employment, "united states, labor and employment, general", 49, "simple, downloadable, virtual", yes, -1, -1, Download, https://app.uplaw.us/download?slug=thirdparty-reference-letter-for-an-outstanding-professor-or-researcher-or-individual-of-extraordinary-ability-or-achievement, 7c54c4f4a0e224b0db7255a6d0a19aea, 0, hidden, product/thirdparty-reference-letter-for-an-outstanding-professor-or-researcher-or-individual-of-extraordinary-ability-or-achievement
"Ttab: Requests for Admissions (Opposer/Petitioner)", "ttab-requests-for-admissions-opposerpetitioner", "Sample requests for admissions that opposer or petitioner's counsel may use as a starting point for drafting an initial set of requests to the applicant or respondent in a trademark opposition or cancellation proceeding before the Trademark Trial and Appeal Board (TTAB). This Ttab: Requests for Admissions (Opposer/Petitioner) has integrated drafting notes with important explanations and drafting tips.", Intellectual Property and Technology, "united states, intellectual property and technology, general", 140, "simple, downloadable, virtual", yes, -1, -1, Download, https://app.uplaw.us/download?slug=ttab-requests-for-admissions-opposerpetitioner, d00996a11ab63a76f913d36ba1688389, 0, hidden, product/ttab-requests-for-admissions-opposerpetitioner
"Motion to Compel Discovery (Federal): Supporting Declaration", "motion-to-compel-discovery-federal-supporting-declaration", "A declaration that a party may submit in support of a motion to compel discovery under Rule 37(a) of the Federal Rules of Civil Procedure (FRCP). This Motion to Compel Discovery (Federal): Supporting Declaration has integrated drafting notes with important explanations and drafting tips.", Litigation, "united states, litigation, general", 33, "simple, downloadable, virtual", yes, -1, -1, Download, https://app.uplaw.us/download?slug=motion-to-compel-discovery-federal-supporting-declaration, 72e9f9ae7db195639bcb84dfa8feb453, 0, hidden, product/motion-to-compel-discovery-federal-supporting-declaration
"Brokerage Agreement: Exclusive Right to Sell Listing Agreement (Commercial Sale)", "brokerage-agreement-exclusive-right-to-sell-listing-agreement-commercial-sale", "A form of brokerage agreement giving a broker the sole right to sell commercial real property on behalf of the owner. This agreement is drafted with clauses favorable to both the owner and the broker that can be tailored to meet the parties' needs. Though a brokerage agreement is primarily governed by state and local laws, the information contained in this resource is useful and relevant to owners and brokers in every state. This Brokerage Agreement: Exclusive Right to Sell Listing Agreement (Commercial Sale) has integrated notes with important explanations and drafting and negotiating tips for both parties.", Real Estate, "united states, real estate, general", 171, "simple, downloadable, virtual", yes, -1, -1, Download, https://app.uplaw.us/download?slug=brokerage-agreement-exclusive-right-to-sell-listing-agreement-commercial-sale, 62f4e36aa760b88547ada55c351d0104, 0, hidden, product/brokerage-agreement-exclusive-right-to-sell-listing-agreement-commercial-sale
